<?xml version="1.0" encoding="utf-8" standalone="no"?>
<!DOCTYPE svg PUBLIC "-//W3C//DTD SVG 1.1//EN"
  "http://www.w3.org/Graphics/SVG/1.1/DTD/svg11.dtd">
<!-- Created with matplotlib (http://matplotlib.org/) -->
<svg height="345pt" version="1.1" viewBox="0 0 460 345" width="460pt" xmlns="http://www.w3.org/2000/svg" xmlns:xlink="http://www.w3.org/1999/xlink">
 <defs>
  <style type="text/css">
*{stroke-linecap:butt;stroke-linejoin:round;}
  </style>
 </defs>
 <g id="figure_1">
  <g id="patch_1">
   <path d="M 0 345.6 
L 460.8 345.6 
L 460.8 0 
L 0 0 
z
" style="fill:#ffffff;"/>
  </g>
  <g id="axes_1">
   <g id="patch_2">
    <path d="M 57.6 307.584 
L 414.72 307.584 
L 414.72 41.472 
L 57.6 41.472 
z
" style="fill:#ffffff;"/>
   </g>
   <g id="matplotlib.axis_1">
    <g id="xtick_1">
     <g id="line2d_1">
      <defs>
       <path d="M 0 0 
L 0 3.5 
" id="mb8bdcf150e" style="stroke:#000000;stroke-width:0.8;"/>
      </defs>
      <g>
       <use style="stroke:#000000;stroke-width:0.8;" x="73.832727" xlink:href="#mb8bdcf150e" y="307.584"/>
      </g>
     </g>
     <g id="text_1">
      <!-- 0 -->
      <defs>
       <path d="M 31.78125 66.40625 
Q 24.171875 66.40625 20.328125 58.90625 
Q 16.5 51.421875 16.5 36.375 
Q 16.5 21.390625 20.328125 13.890625 
Q 24.171875 6.390625 31.78125 6.390625 
Q 39.453125 6.390625 43.28125 13.890625 
Q 47.125 21.390625 47.125 36.375 
Q 47.125 51.421875 43.28125 58.90625 
Q 39.453125 66.40625 31.78125 66.40625 
z
M 31.78125 74.21875 
Q 44.046875 74.21875 50.515625 64.515625 
Q 56.984375 54.828125 56.984375 36.375 
Q 56.984375 17.96875 50.515625 8.265625 
Q 44.046875 -1.421875 31.78125 -1.421875 
Q 19.53125 -1.421875 13.0625 8.265625 
Q 6.59375 17.96875 6.59375 36.375 
Q 6.59375 54.828125 13.0625 64.515625 
Q 19.53125 74.21875 31.78125 74.21875 
z
" id="DejaVuSans-30"/>
      </defs>
      <g transform="translate(70.651477 322.182437)scale(0.1 -0.1)">
       <use xlink:href="#DejaVuSans-30"/>
      </g>
     </g>
    </g>
    <g id="xtick_2">
     <g id="line2d_2">
      <g>
       <use style="stroke:#000000;stroke-width:0.8;" x="138.893758" xlink:href="#mb8bdcf150e" y="307.584"/>
      </g>
     </g>
     <g id="text_2">
      <!-- 10 -->
      <defs>
       <path d="M 12.40625 8.296875 
L 28.515625 8.296875 
L 28.515625 63.921875 
L 10.984375 60.40625 
L 10.984375 69.390625 
L 28.421875 72.90625 
L 38.28125 72.90625 
L 38.28125 8.296875 
L 54.390625 8.296875 
L 54.390625 0 
L 12.40625 0 
z
" id="DejaVuSans-31"/>
      </defs>
      <g transform="translate(132.531258 322.182437)scale(0.1 -0.1)">
       <use xlink:href="#DejaVuSans-31"/>
       <use x="63.623047" xlink:href="#DejaVuSans-30"/>
      </g>
     </g>
    </g>
    <g id="xtick_3">
     <g id="line2d_3">
      <g>
       <use style="stroke:#000000;stroke-width:0.8;" x="203.95479" xlink:href="#mb8bdcf150e" y="307.584"/>
      </g>
     </g>
     <g id="text_3">
      <!-- 20 -->
      <defs>
       <path d="M 19.1875 8.296875 
L 53.609375 8.296875 
L 53.609375 0 
L 7.328125 0 
L 7.328125 8.296875 
Q 12.9375 14.109375 22.625 23.890625 
Q 32.328125 33.6875 34.8125 36.53125 
Q 39.546875 41.84375 41.421875 45.53125 
Q 43.3125 49.21875 43.3125 52.78125 
Q 43.3125 58.59375 39.234375 62.25 
Q 35.15625 65.921875 28.609375 65.921875 
Q 23.96875 65.921875 18.8125 64.3125 
Q 13.671875 62.703125 7.8125 59.421875 
L 7.8125 69.390625 
Q 13.765625 71.78125 18.9375 73 
Q 24.125 74.21875 28.421875 74.21875 
Q 39.75 74.21875 46.484375 68.546875 
Q 53.21875 62.890625 53.21875 53.421875 
Q 53.21875 48.921875 51.53125 44.890625 
Q 49.859375 40.875 45.40625 35.40625 
Q 44.1875 33.984375 37.640625 27.21875 
Q 31.109375 20.453125 19.1875 8.296875 
z
" id="DejaVuSans-32"/>
      </defs>
      <g transform="translate(197.59229 322.182437)scale(0.1 -0.1)">
       <use xlink:href="#DejaVuSans-32"/>
       <use x="63.623047" xlink:href="#DejaVuSans-30"/>
      </g>
     </g>
    </g>
    <g id="xtick_4">
     <g id="line2d_4">
      <g>
       <use style="stroke:#000000;stroke-width:0.8;" x="269.015821" xlink:href="#mb8bdcf150e" y="307.584"/>
      </g>
     </g>
     <g id="text_4">
      <!-- 30 -->
      <defs>
       <path d="M 40.578125 39.3125 
Q 47.65625 37.796875 51.625 33 
Q 55.609375 28.21875 55.609375 21.1875 
Q 55.609375 10.40625 48.1875 4.484375 
Q 40.765625 -1.421875 27.09375 -1.421875 
Q 22.515625 -1.421875 17.65625 -0.515625 
Q 12.796875 0.390625 7.625 2.203125 
L 7.625 11.71875 
Q 11.71875 9.328125 16.59375 8.109375 
Q 21.484375 6.890625 26.8125 6.890625 
Q 36.078125 6.890625 40.9375 10.546875 
Q 45.796875 14.203125 45.796875 21.1875 
Q 45.796875 27.640625 41.28125 31.265625 
Q 36.765625 34.90625 28.71875 34.90625 
L 20.21875 34.90625 
L 20.21875 43.015625 
L 29.109375 43.015625 
Q 36.375 43.015625 40.234375 45.921875 
Q 44.09375 48.828125 44.09375 54.296875 
Q 44.09375 59.90625 40.109375 62.90625 
Q 36.140625 65.921875 28.71875 65.921875 
Q 24.65625 65.921875 20.015625 65.03125 
Q 15.375 64.15625 9.8125 62.3125 
L 9.8125 71.09375 
Q 15.4375 72.65625 20.34375 73.4375 
Q 25.25 74.21875 29.59375 74.21875 
Q 40.828125 74.21875 47.359375 69.109375 
Q 53.90625 64.015625 53.90625 55.328125 
Q 53.90625 49.265625 50.4375 45.09375 
Q 46.96875 40.921875 40.578125 39.3125 
z
" id="DejaVuSans-33"/>
      </defs>
      <g transform="translate(262.653321 322.182437)scale(0.1 -0.1)">
       <use xlink:href="#DejaVuSans-33"/>
       <use x="63.623047" xlink:href="#DejaVuSans-30"/>
      </g>
     </g>
    </g>
    <g id="xtick_5">
     <g id="line2d_5">
      <g>
       <use style="stroke:#000000;stroke-width:0.8;" x="334.076852" xlink:href="#mb8bdcf150e" y="307.584"/>
      </g>
     </g>
     <g id="text_5">
      <!-- 40 -->
      <defs>
       <path d="M 37.796875 64.3125 
L 12.890625 25.390625 
L 37.796875 25.390625 
z
M 35.203125 72.90625 
L 47.609375 72.90625 
L 47.609375 25.390625 
L 58.015625 25.390625 
L 58.015625 17.1875 
L 47.609375 17.1875 
L 47.609375 0 
L 37.796875 0 
L 37.796875 17.1875 
L 4.890625 17.1875 
L 4.890625 26.703125 
z
" id="DejaVuSans-34"/>
      </defs>
      <g transform="translate(327.714352 322.182437)scale(0.1 -0.1)">
       <use xlink:href="#DejaVuSans-34"/>
       <use x="63.623047" xlink:href="#DejaVuSans-30"/>
      </g>
     </g>
    </g>
    <g id="xtick_6">
     <g id="line2d_6">
      <g>
       <use style="stroke:#000000;stroke-width:0.8;" x="399.137883" xlink:href="#mb8bdcf150e" y="307.584"/>
      </g>
     </g>
     <g id="text_6">
      <!-- 50 -->
      <defs>
       <path d="M 10.796875 72.90625 
L 49.515625 72.90625 
L 49.515625 64.59375 
L 19.828125 64.59375 
L 19.828125 46.734375 
Q 21.96875 47.46875 24.109375 47.828125 
Q 26.265625 48.1875 28.421875 48.1875 
Q 40.625 48.1875 47.75 41.5 
Q 54.890625 34.8125 54.890625 23.390625 
Q 54.890625 11.625 47.5625 5.09375 
Q 40.234375 -1.421875 26.90625 -1.421875 
Q 22.3125 -1.421875 17.546875 -0.640625 
Q 12.796875 0.140625 7.71875 1.703125 
L 7.71875 11.625 
Q 12.109375 9.234375 16.796875 8.0625 
Q 21.484375 6.890625 26.703125 6.890625 
Q 35.15625 6.890625 40.078125 11.328125 
Q 45.015625 15.765625 45.015625 23.390625 
Q 45.015625 31 40.078125 35.4375 
Q 35.15625 39.890625 26.703125 39.890625 
Q 22.75 39.890625 18.8125 39.015625 
Q 14.890625 38.140625 10.796875 36.28125 
z
" id="DejaVuSans-35"/>
      </defs>
      <g transform="translate(392.775383 322.182437)scale(0.1 -0.1)">
       <use xlink:href="#DejaVuSans-35"/>
       <use x="63.623047" xlink:href="#DejaVuSans-30"/>
      </g>
     </g>
    </g>
   </g>
   <g id="matplotlib.axis_2">
    <g id="ytick_1">
     <g id="line2d_7">
      <defs>
       <path d="M 0 0 
L -3.5 0 
" id="m2726a7349c" style="stroke:#000000;stroke-width:0.8;"/>
      </defs>
      <g>
       <use style="stroke:#000000;stroke-width:0.8;" x="57.6" xlink:href="#m2726a7349c" y="295.48918"/>
      </g>
     </g>
     <g id="text_7">
      <!-- −1.00 -->
      <defs>
       <path d="M 10.59375 35.5 
L 73.1875 35.5 
L 73.1875 27.203125 
L 10.59375 27.203125 
z
" id="DejaVuSans-2212"/>
       <path d="M 10.6875 12.40625 
L 21 12.40625 
L 21 0 
L 10.6875 0 
z
" id="DejaVuSans-2e"/>
      </defs>
      <g transform="translate(19.954687 299.288399)scale(0.1 -0.1)">
       <use xlink:href="#DejaVuSans-2212"/>
       <use x="83.789062" xlink:href="#DejaVuSans-31"/>
       <use x="147.412109" xlink:href="#DejaVuSans-2e"/>
       <use x="179.199219" xlink:href="#DejaVuSans-30"/>
       <use x="242.822266" xlink:href="#DejaVuSans-30"/>
      </g>
     </g>
    </g>
    <g id="ytick_2">
     <g id="line2d_8">
      <g>
       <use style="stroke:#000000;stroke-width:0.8;" x="57.6" xlink:href="#m2726a7349c" y="265.248939"/>
      </g>
     </g>
     <g id="text_8">
      <!-- −0.75 -->
      <defs>
       <path d="M 8.203125 72.90625 
L 55.078125 72.90625 
L 55.078125 68.703125 
L 28.609375 0 
L 18.3125 0 
L 43.21875 64.59375 
L 8.203125 64.59375 
z
" id="DejaVuSans-37"/>
      </defs>
      <g transform="translate(19.954687 269.048158)scale(0.1 -0.1)">
       <use xlink:href="#DejaVuSans-2212"/>
       <use x="83.789062" xlink:href="#DejaVuSans-30"/>
       <use x="147.412109" xlink:href="#DejaVuSans-2e"/>
       <use x="179.199219" xlink:href="#DejaVuSans-37"/>
       <use x="242.822266" xlink:href="#DejaVuSans-35"/>
      </g>
     </g>
    </g>
    <g id="ytick_3">
     <g id="line2d_9">
      <g>
       <use style="stroke:#000000;stroke-width:0.8;" x="57.6" xlink:href="#m2726a7349c" y="235.008697"/>
      </g>
     </g>
     <g id="text_9">
      <!-- −0.50 -->
      <g transform="translate(19.954687 238.807916)scale(0.1 -0.1)">
       <use xlink:href="#DejaVuSans-2212"/>
       <use x="83.789062" xlink:href="#DejaVuSans-30"/>
       <use x="147.412109" xlink:href="#DejaVuSans-2e"/>
       <use x="179.199219" xlink:href="#DejaVuSans-35"/>
       <use x="242.822266" xlink:href="#DejaVuSans-30"/>
      </g>
     </g>
    </g>
    <g id="ytick_4">
     <g id="line2d_10">
      <g>
       <use style="stroke:#000000;stroke-width:0.8;" x="57.6" xlink:href="#m2726a7349c" y="204.768456"/>
      </g>
     </g>
     <g id="text_10">
      <!-- −0.25 -->
      <g transform="translate(19.954687 208.567674)scale(0.1 -0.1)">
       <use xlink:href="#DejaVuSans-2212"/>
       <use x="83.789062" xlink:href="#DejaVuSans-30"/>
       <use x="147.412109" xlink:href="#DejaVuSans-2e"/>
       <use x="179.199219" xlink:href="#DejaVuSans-32"/>
       <use x="242.822266" xlink:href="#DejaVuSans-35"/>
      </g>
     </g>
    </g>
    <g id="ytick_5">
     <g id="line2d_11">
      <g>
       <use style="stroke:#000000;stroke-width:0.8;" x="57.6" xlink:href="#m2726a7349c" y="174.528214"/>
      </g>
     </g>
     <g id="text_11">
      <!-- 0.00 -->
      <g transform="translate(28.334375 178.327433)scale(0.1 -0.1)">
       <use xlink:href="#DejaVuSans-30"/>
       <use x="63.623047" xlink:href="#DejaVuSans-2e"/>
       <use x="95.410156" xlink:href="#DejaVuSans-30"/>
       <use x="159.033203" xlink:href="#DejaVuSans-30"/>
      </g>
     </g>
    </g>
    <g id="ytick_6">
     <g id="line2d_12">
      <g>
       <use style="stroke:#000000;stroke-width:0.8;" x="57.6" xlink:href="#m2726a7349c" y="144.287972"/>
      </g>
     </g>
     <g id="text_12">
      <!-- 0.25 -->
      <g transform="translate(28.334375 148.087191)scale(0.1 -0.1)">
       <use xlink:href="#DejaVuSans-30"/>
       <use x="63.623047" xlink:href="#DejaVuSans-2e"/>
       <use x="95.410156" xlink:href="#DejaVuSans-32"/>
       <use x="159.033203" xlink:href="#DejaVuSans-35"/>
      </g>
     </g>
    </g>
    <g id="ytick_7">
     <g id="line2d_13">
      <g>
       <use style="stroke:#000000;stroke-width:0.8;" x="57.6" xlink:href="#m2726a7349c" y="114.047731"/>
      </g>
     </g>
     <g id="text_13">
      <!-- 0.50 -->
      <g transform="translate(28.334375 117.846949)scale(0.1 -0.1)">
       <use xlink:href="#DejaVuSans-30"/>
       <use x="63.623047" xlink:href="#DejaVuSans-2e"/>
       <use x="95.410156" xlink:href="#DejaVuSans-35"/>
       <use x="159.033203" xlink:href="#DejaVuSans-30"/>
      </g>
     </g>
    </g>
    <g id="ytick_8">
     <g id="line2d_14">
      <g>
       <use style="stroke:#000000;stroke-width:0.8;" x="57.6" xlink:href="#m2726a7349c" y="83.807489"/>
      </g>
     </g>
     <g id="text_14">
      <!-- 0.75 -->
      <g transform="translate(28.334375 87.606708)scale(0.1 -0.1)">
       <use xlink:href="#DejaVuSans-30"/>
       <use x="63.623047" xlink:href="#DejaVuSans-2e"/>
       <use x="95.410156" xlink:href="#DejaVuSans-37"/>
       <use x="159.033203" xlink:href="#DejaVuSans-35"/>
      </g>
     </g>
    </g>
    <g id="ytick_9">
     <g id="line2d_15">
      <g>
       <use style="stroke:#000000;stroke-width:0.8;" x="57.6" xlink:href="#m2726a7349c" y="53.567247"/>
      </g>
     </g>
     <g id="text_15">
      <!-- 1.00 -->
      <g transform="translate(28.334375 57.366466)scale(0.1 -0.1)">
       <use xlink:href="#DejaVuSans-31"/>
       <use x="63.623047" xlink:href="#DejaVuSans-2e"/>
       <use x="95.410156" xlink:href="#DejaVuSans-30"/>
       <use x="159.033203" xlink:href="#DejaVuSans-30"/>
      </g>
     </g>
    </g>
   </g>
   <g id="line2d_16">
    <path clip-path="url(#p28122d402b)" d="M 73.832727 162.452267 
L 76.435169 116.536435 
L 77.736389 96.603017 
L 79.03761 79.77623 
L 80.33883 66.726906 
L 80.989441 61.787861 
L 81.640051 57.97528 
L 82.290661 55.327258 
L 82.941272 53.870252 
L 83.591882 53.618821 
L 84.242492 54.575476 
L 84.893103 56.730659 
L 85.543713 60.062837 
L 86.194323 64.538714 
L 86.844934 70.113571 
L 88.146154 84.326988 
L 89.447375 102.136442 
L 90.748595 122.831929 
L 92.700426 157.458201 
L 96.604088 228.055916 
L 97.905309 248.539138 
L 99.206529 266.071778 
L 100.50775 279.954865 
L 101.15836 285.348535 
L 101.808971 289.634925 
L 102.459581 292.771206 
L 103.110191 294.726042 
L 103.760802 295.479902 
L 104.411412 295.025252 
L 105.062022 293.366636 
L 105.712633 290.520625 
L 106.363243 286.515657 
L 107.013853 281.391747 
L 108.315074 268.002556 
L 109.616294 250.886839 
L 110.917515 230.726945 
L 112.869346 196.562767 
L 116.773008 125.557174 
L 118.074228 104.559578 
L 119.375449 86.351411 
L 120.67667 71.658575 
L 121.32728 65.81961 
L 121.97789 61.066826 
L 122.628501 57.447711 
L 123.279111 54.998425 
L 123.929721 53.743441 
L 124.580332 53.695299 
L 125.230942 54.85448 
L 125.881552 57.209401 
L 126.532163 60.736533 
L 127.182773 65.400633 
L 127.833383 71.1551 
L 129.134604 85.694828 
L 130.435824 103.776062 
L 132.387655 135.929766 
L 138.243148 240.333536 
L 139.544369 259.185735 
L 140.845589 274.662907 
L 142.14681 286.148025 
L 142.79742 290.243714 
L 143.448031 293.183213 
L 144.098641 294.937149 
L 144.749251 295.488 
L 145.399862 294.83026 
L 146.050472 292.970503 
L 146.701082 289.927308 
L 147.351692 285.731085 
L 148.002303 280.423759 
L 149.303523 266.698488 
L 150.604744 249.298679 
L 151.905965 228.918008 
L 153.857796 194.559856 
L 157.761457 123.704401 
L 159.062678 102.910427 
L 160.363899 84.971628 
L 161.665119 70.603167 
L 162.31573 64.943049 
L 162.96634 60.37787 
L 163.61695 56.953243 
L 164.267561 54.703387 
L 164.918171 53.65078 
L 165.568781 53.805941 
L 166.219392 55.167319 
L 166.870002 57.721312 
L 167.520612 61.4424 
L 168.171222 66.293405 
L 168.821833 72.225856 
L 170.123053 87.087784 
L 171.424274 105.435686 
L 173.376105 137.862723 
L 179.231598 242.030758 
L 180.532818 260.62646 
L 181.834039 275.789696 
L 182.484649 281.889184 
L 183.13526 286.915956 
L 183.78587 290.819788 
L 184.43648 293.561672 
L 185.087091 295.114214 
L 185.737701 295.4619 
L 186.388311 294.601256 
L 187.038921 292.540883 
L 187.689532 289.301365 
L 188.340142 284.915073 
L 188.990752 279.425831 
L 190.291973 265.36836 
L 191.593194 247.689379 
L 192.894414 227.093693 
L 194.846245 192.551281 
L 198.749907 121.865997 
L 200.051128 101.281523 
L 201.352348 83.617164 
L 202.653569 69.577141 
L 203.304179 64.09747 
L 203.95479 59.721187 
L 204.6054 56.492017 
L 205.25601 54.442226 
L 205.906621 53.592294 
L 206.557231 53.950714 
L 207.207841 55.513905 
L 207.858451 58.266247 
L 208.509062 62.180241 
L 209.159672 67.216778 
L 210.460893 80.445477 
L 211.762113 97.424958 
L 213.063334 117.478302 
L 215.015165 151.547241 
L 219.569437 233.457316 
L 220.870658 253.269246 
L 222.171878 269.94202 
L 223.473099 282.810947 
L 224.123709 287.652113 
L 224.77432 291.362983 
L 225.42493 293.906478 
L 226.07554 295.257185 
L 226.72615 295.401608 
L 227.376761 294.338304 
L 228.027371 292.077897 
L 228.677981 288.642973 
L 229.328592 284.067852 
L 229.979202 278.398247 
L 231.280423 264.01255 
L 232.581643 246.059395 
L 233.882864 225.254517 
L 236.485305 178.487917 
L 239.738357 120.042482 
L 241.039577 99.673329 
L 242.340798 82.288403 
L 243.642019 68.580788 
L 244.292629 63.283113 
L 244.943239 59.096962 
L 245.59385 56.064163 
L 246.24446 54.215016 
L 246.89507 53.568 
L 247.54568 54.129578 
L 248.196291 55.894139 
L 248.846901 58.844053 
L 249.497511 62.949845 
L 250.148122 68.170491 
L 251.449342 81.737075 
L 252.750563 99.002949 
L 254.051784 119.279778 
L 256.003615 153.547273 
L 259.907276 224.476331 
L 261.208497 245.367475 
L 262.509718 263.434481 
L 263.810938 277.957075 
L 264.461549 283.702095 
L 265.112159 288.356287 
L 265.762769 291.873145 
L 266.413379 294.217532 
L 267.06399 295.366023 
L 267.7146 295.307142 
L 268.36521 294.041478 
L 269.015821 291.581677 
L 269.666431 287.952317 
L 270.317041 283.189661 
L 270.967652 277.341295 
L 272.268872 262.631439 
L 273.570093 244.409186 
L 275.521924 212.110459 
L 281.377417 107.827107 
L 282.678637 89.109271 
L 283.979858 73.796818 
L 284.630468 67.614389 
L 285.281079 62.500208 
L 285.931689 58.505374 
L 286.582299 55.669802 
L 287.232909 54.021823 
L 287.88352 53.577905 
L 288.53413 54.342482 
L 289.18474 56.307915 
L 289.835351 59.454566 
L 290.485961 63.750995 
L 291.136571 69.154274 
L 292.437792 83.054908 
L 293.739013 100.602294 
L 295.040233 121.096873 
L 296.992064 155.553236 
L 300.895726 226.321605 
L 302.196947 247.006026 
L 303.498167 264.800984 
L 304.799388 278.997052 
L 305.449998 284.562378 
L 306.100608 289.028278 
L 306.751219 292.350131 
L 307.401829 294.494747 
L 308.052439 295.440697 
L 308.70305 295.178529 
L 309.35366 293.710863 
L 310.00427 291.052363 
L 310.654881 287.229593 
L 311.305491 282.280748 
L 312.606712 269.213379 
L 313.907932 252.371211 
L 315.209153 232.425689 
L 317.160984 198.454149 
L 321.715256 116.442177 
L 323.016477 96.520879 
L 324.317697 79.709487 
L 325.618918 66.678218 
L 326.269528 61.748977 
L 326.920138 57.946588 
L 327.570749 55.309045 
L 328.221359 53.8627 
L 328.871969 53.622005 
L 329.52258 54.589365 
L 330.17319 56.755114 
L 330.8238 60.097614 
L 331.474411 64.583465 
L 332.125021 70.167849 
L 333.426242 84.398603 
L 334.727462 102.22254 
L 336.028683 122.929076 
L 337.980514 157.564565 
L 341.884176 228.152236 
L 343.185396 248.624085 
L 344.486617 266.141965 
L 345.787837 280.007494 
L 346.438448 285.39155 
L 347.089058 289.667897 
L 347.739668 292.793805 
L 348.390279 294.738044 
L 349.040889 295.481185 
L 349.691499 295.015804 
L 350.34211 293.346551 
L 350.99272 290.490105 
L 351.64333 286.475005 
L 352.293941 281.341371 
L 353.595161 267.934333 
L 354.896382 250.803488 
L 356.197602 230.631789 
L 358.149433 196.457124 
L 362.053095 125.458959 
L 363.354316 104.471971 
L 364.655537 86.277903 
L 365.956757 71.602098 
L 366.607367 65.772539 
L 367.257978 61.029631 
L 367.908588 57.420763 
L 368.559198 54.981995 
L 369.209809 53.737693 
L 369.860419 53.700289 
L 370.511029 54.870159 
L 371.16164 57.235612 
L 371.81225 60.773014 
L 372.46286 65.44702 
L 373.113471 71.21093 
L 374.414691 85.76778 
L 375.715912 103.863228 
L 377.667743 136.031597 
L 383.523236 240.423653 
L 384.824456 259.262437 
L 386.125677 274.723136 
L 387.426897 286.189378 
L 388.077508 290.274962 
L 388.728118 293.204043 
L 389.378728 294.947354 
L 390.029339 295.487477 
L 390.679949 294.819015 
L 391.330559 292.948647 
L 391.98117 289.895061 
L 392.63178 285.688767 
L 393.28239 280.371794 
L 394.583611 266.628879 
L 395.884831 249.2142 
L 397.186052 228.822027 
L 398.487273 206.265331 
L 398.487273 206.265331 
" style="fill:none;stroke:#1f77b4;stroke-linecap:square;stroke-width:1.5;"/>
   </g>
   <g id="line2d_17">
    <path clip-path="url(#p28122d402b)" d="M 73.832727 174.528214 
L 76.435169 127.423795 
L 78.386999 96.60302 
L 79.68822 79.776234 
L 80.989441 66.72691 
L 81.640051 61.787865 
L 82.290661 57.975284 
L 82.941272 55.327262 
L 83.591882 53.870256 
L 84.242492 53.618825 
L 84.893103 54.57548 
L 85.543713 56.730663 
L 86.194323 60.062841 
L 86.844934 64.538718 
L 87.495544 70.113575 
L 88.796764 84.326991 
L 90.097985 102.136445 
L 91.399206 122.83193 
L 93.351037 157.458201 
L 97.254698 228.055914 
L 98.555919 248.539136 
L 99.85714 266.071775 
L 101.15836 279.954862 
L 101.808971 285.348531 
L 102.459581 289.634921 
L 103.110191 292.771202 
L 103.760802 294.726038 
L 104.411412 295.479898 
L 105.062022 295.025248 
L 105.712633 293.366631 
L 106.363243 290.520621 
L 107.013853 286.515653 
L 107.664463 281.391743 
L 108.965684 268.002553 
L 110.266905 250.886837 
L 111.568125 230.726943 
L 113.519956 196.562766 
L 117.423618 125.557176 
L 118.724839 104.559581 
L 120.026059 86.351414 
L 121.32728 71.658578 
L 121.97789 65.819614 
L 122.628501 61.06683 
L 123.279111 57.447715 
L 123.929721 54.998429 
L 124.580332 53.743446 
L 125.230942 53.695304 
L 125.881552 54.854484 
L 126.532163 57.209405 
L 127.182773 60.736536 
L 127.833383 65.400637 
L 128.483993 71.155104 
L 129.785214 85.694831 
L 131.086435 103.776065 
L 133.038266 135.929768 
L 138.893758 240.333533 
L 140.194979 259.185733 
L 141.4962 274.662904 
L 142.79742 286.148021 
L 143.448031 290.24371 
L 144.098641 293.183208 
L 144.749251 294.937145 
L 145.399862 295.487996 
L 146.050472 294.830256 
L 146.701082 292.970498 
L 147.351692 289.927304 
L 148.002303 285.731081 
L 148.652913 280.423755 
L 149.954134 266.698485 
L 151.255354 249.298676 
L 152.556575 228.918006 
L 154.508406 194.559855 
L 158.412068 123.704403 
L 159.713288 102.910429 
L 161.014509 84.971631 
L 162.31573 70.60317 
L 162.96634 64.943053 
L 163.61695 60.377874 
L 164.267561 56.953247 
L 164.918171 54.703391 
L 165.568781 53.650784 
L 166.219392 53.805945 
L 166.870002 55.167323 
L 167.520612 57.721316 
L 168.171222 61.442404 
L 168.821833 66.293409 
L 169.472443 72.22586 
L 170.773664 87.087787 
L 172.074884 105.435688 
L 174.026715 137.862724 
L 179.882208 242.030756 
L 181.183429 260.626457 
L 182.484649 275.789692 
L 183.13526 281.88918 
L 183.78587 286.915952 
L 184.43648 290.819784 
L 185.087091 293.561668 
L 185.737701 295.114209 
L 186.388311 295.461895 
L 187.038921 294.601252 
L 187.689532 292.540878 
L 188.340142 289.301361 
L 188.990752 284.915069 
L 189.641363 279.425828 
L 190.942583 265.368357 
L 192.243804 247.689377 
L 193.545025 227.093692 
L 195.496856 192.55128 
L 199.400517 121.865999 
L 200.701738 101.281526 
L 202.002959 83.617167 
L 203.304179 69.577145 
L 203.95479 64.097474 
L 204.6054 59.72119 
L 205.25601 56.492021 
L 205.906621 54.44223 
L 206.557231 53.592298 
L 207.207841 53.950718 
L 207.858451 55.513909 
L 208.509062 58.266251 
L 209.159672 62.180245 
L 209.810282 67.216782 
L 211.111503 80.44548 
L 212.412724 97.424961 
L 213.713944 117.478304 
L 215.665775 151.547242 
L 220.220047 233.457314 
L 221.521268 253.269244 
L 222.822489 269.942017 
L 224.123709 282.810943 
L 224.77432 287.652109 
L 225.42493 291.362979 
L 226.07554 293.906474 
L 226.72615 295.257181 
L 227.376761 295.401604 
L 228.027371 294.3383 
L 228.677981 292.077893 
L 229.328592 288.642969 
L 229.979202 284.067848 
L 230.629812 278.398243 
L 231.931033 264.012547 
L 233.232254 246.059392 
L 234.533474 225.254516 
L 237.135915 178.487917 
L 240.388967 120.042484 
L 241.690188 99.673331 
L 242.991408 82.288407 
L 244.292629 68.580792 
L 244.943239 63.283117 
L 245.59385 59.096966 
L 246.24446 56.064167 
L 246.89507 54.215021 
L 247.54568 53.568004 
L 248.196291 54.129582 
L 248.846901 55.894143 
L 249.497511 58.844057 
L 250.148122 62.949849 
L 250.798732 68.170494 
L 252.099953 81.737078 
L 253.401173 99.002952 
L 254.702394 119.27978 
L 256.654225 153.547274 
L 260.557887 224.476329 
L 261.859107 245.367473 
L 263.160328 263.434478 
L 264.461549 277.957071 
L 265.112159 283.702092 
L 265.762769 288.356283 
L 266.413379 291.873141 
L 267.06399 294.217528 
L 267.7146 295.366019 
L 268.36521 295.307138 
L 269.015821 294.041474 
L 269.666431 291.581673 
L 270.317041 287.952313 
L 270.967652 283.189657 
L 271.618262 277.341291 
L 272.919483 262.631436 
L 274.220703 244.409184 
L 276.172534 212.110458 
L 282.028027 107.82711 
L 283.329248 89.109274 
L 284.630468 73.796822 
L 285.281079 67.614393 
L 285.931689 62.500212 
L 286.582299 58.505378 
L 287.232909 55.669806 
L 287.88352 54.021827 
L 288.53413 53.577909 
L 289.18474 54.342486 
L 289.835351 56.307919 
L 290.485961 59.45457 
L 291.136571 63.750999 
L 291.787182 69.154277 
L 293.088402 83.054911 
L 294.389623 100.602297 
L 295.690844 121.096875 
L 297.642674 155.553237 
L 301.546336 226.321603 
L 302.847557 247.006023 
L 304.148778 264.800981 
L 305.449998 278.997049 
L 306.100608 284.562374 
L 306.751219 289.028274 
L 307.401829 292.350127 
L 308.052439 294.494743 
L 308.70305 295.440692 
L 309.35366 295.178525 
L 310.00427 293.710859 
L 310.654881 291.052359 
L 311.305491 287.229589 
L 311.956101 282.280744 
L 313.257322 269.213376 
L 314.558543 252.371208 
L 315.859763 232.425687 
L 317.811594 198.454148 
L 322.365866 116.442179 
L 323.667087 96.520882 
L 324.968308 79.70949 
L 326.269528 66.678222 
L 326.920138 61.748981 
L 327.570749 57.946592 
L 328.221359 55.309049 
L 328.871969 53.862704 
L 329.52258 53.622009 
L 330.17319 54.589369 
L 330.8238 56.755118 
L 331.474411 60.097618 
L 332.125021 64.583469 
L 332.775631 70.167853 
L 334.076852 84.398606 
L 335.378073 102.222542 
L 336.679293 122.929077 
L 338.631124 157.564565 
L 342.534786 228.152234 
L 343.836007 248.624082 
L 345.137227 266.141962 
L 346.438448 280.00749 
L 347.089058 285.391546 
L 347.739668 289.667893 
L 348.390279 292.793801 
L 349.040889 294.73804 
L 349.691499 295.481181 
L 350.34211 295.0158 
L 350.99272 293.346547 
L 351.64333 290.490101 
L 352.293941 286.475002 
L 352.944551 281.341367 
L 354.245772 267.93433 
L 355.546992 250.803486 
L 356.848213 230.631787 
L 358.800044 196.457123 
L 362.703706 125.458961 
L 364.004926 104.471973 
L 365.306147 86.277907 
L 366.607367 71.602101 
L 367.257978 65.772543 
L 367.908588 61.029635 
L 368.559198 57.420768 
L 369.209809 54.981999 
L 369.860419 53.737697 
L 370.511029 53.700293 
L 371.16164 54.870163 
L 371.81225 57.235616 
L 372.46286 60.773018 
L 373.113471 65.447024 
L 373.764081 71.210933 
L 375.065302 85.767783 
L 376.366522 103.86323 
L 378.318353 136.031599 
L 384.173846 240.423651 
L 385.475066 259.262434 
L 386.776287 274.723132 
L 388.077508 286.189375 
L 388.728118 290.274958 
L 389.378728 293.204039 
L 390.029339 294.94735 
L 390.679949 295.487473 
L 391.330559 294.81901 
L 391.98117 292.948642 
L 392.63178 289.895057 
L 393.28239 285.688763 
L 393.933001 280.371791 
L 395.234221 266.628876 
L 396.535442 249.214198 
L 397.836662 228.822025 
L 398.487273 217.759655 
L 398.487273 217.759655 
" style="fill:none;stroke:#ff7f0e;stroke-linecap:square;stroke-width:1.5;"/>
   </g>
   <g id="patch_3">
    <path d="M 57.6 307.584 
L 57.6 41.472 
" style="fill:none;stroke:#000000;stroke-linecap:square;stroke-linejoin:miter;stroke-width:0.8;"/>
   </g>
   <g id="patch_4">
    <path d="M 414.72 307.584 
L 414.72 41.472 
" style="fill:none;stroke:#000000;stroke-linecap:square;stroke-linejoin:miter;stroke-width:0.8;"/>
   </g>
   <g id="patch_5">
    <path d="M 57.6 307.584 
L 414.72 307.584 
" style="fill:none;stroke:#000000;stroke-linecap:square;stroke-linejoin:miter;stroke-width:0.8;"/>
   </g>
   <g id="patch_6">
    <path d="M 57.6 41.472 
L 414.72 41.472 
" style="fill:none;stroke:#000000;stroke-linecap:square;stroke-linejoin:miter;stroke-width:0.8;"/>
   </g>
  </g>
 </g>
 <defs>
  <clipPath id="p28122d402b">
   <rect height="266.112" width="357.12" x="57.6" y="41.472"/>
  </clipPath>
 </defs>
</svg>
